MLP/MLP.sim/sim_1/behav/xsim/simulate.log
Time resolution is 1 ps
Loading LUT from sigmoid_function.mem
Loading LUT from sigmoid_function.mem
Loading LUT from sigmoid_function.mem
Loading LUT from sigmoid_function.mem
Loading LUT from sigmoid_function.mem
Time: 20000, input: 002, output: 001
Time: 35000, input: 002, output: 002
Time: 40000, input: 003, output: 002
Time: 60000, input: 004, output: 002
Time: 75000, input: 004, output: 004
Time: 80000, input: 005, output: 004
Time: 100000, input: 006, output: 004
Time: 115000, input: 006, output: 006
Time: 120000, input: 007, output: 006
Time: 140000, input: 008, output: 006
Time: 155000, input: 008, output: 005
Time: 160000, input: 009, output: 005
Time: 175000, input: 009, output: 007
Time: 180000, input: 00a, output: 007
Time: 200000, input: 00b, output: 007
Time: 215000, input: 00b, output: 009
Time: 220000, input: 00c, output: 009
Time: 240000, input: 00d, output: 009
Time: 260000, input: 00e, output: 009
Time: 275000, input: 00e, output: 00b
Time: 280000, input: 00f, output: 00b
Time: 295000, input: 00f, output: 00a
Time: 300000, input: 010, output: 00a
Time: 320000, input: 011, output: 00a
Time: 335000, input: 011, output: 00d
Time: 340000, input: 012, output: 00d
Time: 360000, input: 013, output: 00d
Time: 375000, input: 013, output: 00f
Time: 380000, input: 014, output: 00f
Time: 395000, input: 014, output: 00e
Time: 400000, input: 015, output: 00e
Time: 420000, input: 016, output: 00e
Time: 435000, input: 016, output: 010
Time: 440000, input: 017, output: 010
Time: 460000, input: 018, output: 010
Time: 480000, input: 019, output: 010
Time: 500000, input: 01a, output: 010
Time: 515000, input: 01a, output: 011
Time: 520000, input: 01b, output: 011
Time: 540000, input: 01c, output: 011
Time: 555000, input: 01c, output: 012
Time: 560000, input: 01d, output: 012
Time: 580000, input: 01e, output: 012
Time: 595000, input: 01e, output: 013
Time: 600000, input: 01f, output: 013
Time: 620000, input: 020, output: 013
Time: 640000, input: 021, output: 013
Time: 655000, input: 021, output: 012
Time: 660000, input: 022, output: 012
Time: 675000, input: 022, output: 015
Time: 680000, input: 023, output: 015
Time: 700000, input: 024, output: 015
Time: 720000, input: 025, output: 015
Time: 735000, input: 025, output: 014
Time: 740000, input: 026, output: 014
Time: 760000, input: 027, output: 014
Time: 775000, input: 027, output: 016
Time: 780000, input: 028, output: 016
Time: 800000, input: 029, output: 016
Time: 820000, input: 02a, output: 016
Time: 840000, input: 02b, output: 016
Time: 855000, input: 02b, output: 015
Time: 860000, input: 02c, output: 015
Time: 880000, input: 02d, output: 015
Time: 895000, input: 02d, output: 016
Time: 900000, input: 02e, output: 016
Time: 920000, input: 02f, output: 016
Time: 940000, input: 030, output: 016
Time: 960000, input: 031, output: 016
Time: 980000, input: 032, output: 016
Time: 1000000, input: 033, output: 016
Time: 1020000, input: 034, output: 016
Time: 1035000, input: 034, output: 018
Time: 1040000, input: 035, output: 018
Time: 1060000, input: 036, output: 018
Time: 1080000, input: 037, output: 018
Time: 1100000, input: 038, output: 018
Time: 1115000, input: 038, output: 017
Time: 1120000, input: 039, output: 017
Time: 1140000, input: 03a, output: 017
Time: 1155000, input: 03a, output: 016
Time: 1160000, input: 03b, output: 016
Time: 1180000, input: 03c, output: 016
Time: 1200000, input: 03d, output: 016
Time: 1220000, input: 03e, output: 016
Time: 1235000, input: 03e, output: 019
Time: 1240000, input: 03f, output: 019
Time: 1255000, input: 03f, output: 018
Time: 1260000, input: 040, output: 018
Time: 1280000, input: 041, output: 018
Time: 1300000, input: 042, output: 018
Time: 1320000, input: 043, output: 018
Time: 1340000, input: 044, output: 018
Time: 1360000, input: 045, output: 018
Time: 1375000, input: 045, output: 017
Time: 1380000, input: 046, output: 017
Time: 1400000, input: 047, output: 017
Time: 1415000, input: 047, output: 016
Time: 1420000, input: 048, output: 016
Time: 1440000, input: 049, output: 016
Time: 1460000, input: 04a, output: 016
Time: 1480000, input: 04b, output: 016
Time: 1500000, input: 04c, output: 016
Time: 1515000, input: 04c, output: 018
Time: 1520000, input: 04d, output: 018
Time: 1535000, input: 04d, output: 017
Time: 1540000, input: 04e, output: 017
Time: 1560000, input: 04f, output: 017
Time: 1575000, input: 04f, output: 018
Time: 1580000, input: 050, output: 018
Time: 1600000, input: 051, output: 018
Time: 1620000, input: 052, output: 018
Time: 1640000, input: 053, output: 018
Time: 1655000, input: 053, output: 016
Time: 1660000, input: 054, output: 016
Time: 1680000, input: 055, output: 016
Time: 1700000, input: 056, output: 016
Time: 1720000, input: 057, output: 016
Time: 1740000, input: 058, output: 016
Time: 1760000, input: 059, output: 016
Time: 1780000, input: 05a, output: 016
Time: 1800000, input: 05b, output: 016
Time: 1815000, input: 05b, output: 015
Time: 1820000, input: 05c, output: 015
Time: 1840000, input: 05d, output: 015
Time: 1860000, input: 05e, output: 015
Time: 1880000, input: 05f, output: 015
Time: 1895000, input: 05f, output: 014
Time: 1900000, input: 060, output: 014
Time: 1920000, input: 061, output: 014
Time: 1940000, input: 062, output: 014
Time: 1960000, input: 063, output: 014
Time: 1980000, input: 064, output: 014
Time: 2000000, input: 065, output: 014
Time: 2015000, input: 065, output: 013
Time: 2020000, input: 066, output: 013
Time: 2040000, input: 067, output: 013
Time: 2060000, input: 068, output: 013
Time: 2080000, input: 069, output: 013
Time: 2100000, input: 06a, output: 013
Time: 2115000, input: 06a, output: 015
Time: 2120000, input: 06b, output: 015
Time: 2140000, input: 06c, output: 015
Time: 2160000, input: 06d, output: 015
Time: 2180000, input: 06e, output: 015
Time: 2200000, input: 06f, output: 015
Time: 2220000, input: 070, output: 015
Time: 2235000, input: 070, output: 014
Time: 2240000, input: 071, output: 014
Time: 2260000, input: 072, output: 014
Time: 2280000, input: 073, output: 014
Time: 2295000, input: 073, output: 013
Time: 2300000, input: 074, output: 013
Time: 2320000, input: 075, output: 013
Time: 2340000, input: 076, output: 013
Time: 2360000, input: 077, output: 013
Time: 2380000, input: 078, output: 013
Time: 2400000, input: 079, output: 013
Time: 2420000, input: 07a, output: 013
Time: 2435000, input: 07a, output: 012
Time: 2440000, input: 07b, output: 012
Time: 2460000, input: 07c, output: 012
Time: 2480000, input: 07d, output: 012
Time: 2500000, input: 07e, output: 012
Time: 2520000, input: 07f, output: 012
Time: 2540000, input: 080, output: 012
Time: 2560000, input: 081, output: 012
Time: 2575000, input: 081, output: 011
Time: 2580000, input: 082, output: 011
Time: 2600000, input: 083, output: 011
Time: 2620000, input: 084, output: 011
Time: 2640000, input: 085, output: 011
Time: 2660000, input: 086, output: 011
Time: 2680000, input: 087, output: 011
Time: 2700000, input: 088, output: 011
Time: 2715000, input: 088, output: 010
Time: 2720000, input: 089, output: 010
Time: 2740000, input: 08a, output: 010
Time: 2760000, input: 08b, output: 010
Time: 2780000, input: 08c, output: 010
Time: 2800000, input: 08d, output: 010
Time: 2820000, input: 08e, output: 010
Time: 2840000, input: 08f, output: 010
Time: 2860000, input: 090, output: 010
Time: 2875000, input: 090, output: 00f
Time: 2880000, input: 091, output: 00f
Time: 2900000, input: 092, output: 00f
Time: 2920000, input: 093, output: 00f
Time: 2940000, input: 094, output: 00f
Time: 2960000, input: 095, output: 00f
Time: 2980000, input: 096, output: 00f
Time: 3000000, input: 097, output: 00f
Time: 3015000, input: 097, output: 00e
Time: 3020000, input: 098, output: 00e
Time: 3040000, input: 099, output: 00e
Time: 3060000, input: 09a, output: 00e
Time: 3080000, input: 09b, output: 00e
Time: 3100000, input: 09c, output: 00e
Time: 3120000, input: 09d, output: 00e
Time: 3140000, input: 09e, output: 00e
Time: 3160000, input: 09f, output: 00e
Time: 3180000, input: 0a0, output: 00e
Time: 3200000, input: 0a1, output: 00e
Time: 3215000, input: 0a1, output: 00d
Time: 3220000, input: 0a2, output: 00d
Time: 3240000, input: 0a3, output: 00d
Time: 3260000, input: 0a4, output: 00d
Time: 3280000, input: 0a5, output: 00d
Time: 3300000, input: 0a6, output: 00d
Time: 3320000, input: 0a7, output: 00d
Time: 3340000, input: 0a8, output: 00d
Time: 3355000, input: 0a8, output: 00c
Time: 3360000, input: 0a9, output: 00c
Time: 3380000, input: 0aa, output: 00c
Time: 3400000, input: 0ab, output: 00c
Time: 3420000, input: 0ac, output: 00c
Time: 3440000, input: 0ad, output: 00c
Time: 3460000, input: 0ae, output: 00c
Time: 3475000, input: 0ae, output: 00b
Time: 3480000, input: 0af, output: 00b
Time: 3500000, input: 0b0, output: 00b
Time: 3520000, input: 0b1, output: 00b
Time: 3540000, input: 0b2, output: 00b
Time: 3560000, input: 0b3, output: 00b
Time: 3580000, input: 0b4, output: 00b
Time: 3600000, input: 0b5, output: 00b
Time: 3620000, input: 0b6, output: 00b
Time: 3640000, input: 0b7, output: 00b
Time: 3660000, input: 0b8, output: 00b
Time: 3680000, input: 0b9, output: 00b
Time: 3700000, input: 0ba, output: 00b
Time: 3715000, input: 0ba, output: 00a
Time: 3720000, input: 0bb, output: 00a
Time: 3740000, input: 0bc, output: 00a
Time: 3760000, input: 0bd, output: 00a
Time: 3780000, input: 0be, output: 00a
Time: 3800000, input: 0bf, output: 00a
Time: 3820000, input: 0c0, output: 00a
Time: 3840000, input: 0c1, output: 00a
Time: 3860000, input: 0c2, output: 00a
Time: 3880000, input: 0c3, output: 00a
Time: 3900000, input: 0c4, output: 00a
Time: 3920000, input: 0c5, output: 00a
Time: 3935000, input: 0c5, output: 009
Time: 3940000, input: 0c6, output: 009
Time: 3960000, input: 0c7, output: 009
Time: 3980000, input: 0c8, output: 009
Time: 4000000, input: 0c9, output: 009
Time: 4020000, input: 0ca, output: 009
Time: 4040000, input: 0cb, output: 009
Time: 4060000, input: 0cc, output: 009
Time: 4080000, input: 0cd, output: 009
Time: 4100000, input: 0ce, output: 009
Time: 4120000, input: 0cf, output: 009
Time: 4140000, input: 0d0, output: 009
Time: 4155000, input: 0d0, output: 008
Time: 4160000, input: 0d1, output: 008
Time: 4175000, input: 0d1, output: 007
Time: 4180000, input: 0d2, output: 007
Time: 4200000, input: 0d3, output: 007
Time: 4220000, input: 0d4, output: 007
Time: 4240000, input: 0d5, output: 007
Time: 4260000, input: 0d6, output: 007
Time: 4280000, input: 0d7, output: 007
Time: 4300000, input: 0d8, output: 007
Time: 4320000, input: 0d9, output: 007
Time: 4340000, input: 0da, output: 007
Time: 4360000, input: 0db, output: 007
Time: 4380000, input: 0dc, output: 007
Time: 4400000, input: 0dd, output: 007
Time: 4420000, input: 0de, output: 007
Time: 4440000, input: 0df, output: 007
Time: 4460000, input: 0e0, output: 007
Time: 4480000, input: 0e1, output: 007
Time: 4500000, input: 0e2, output: 007
Time: 4520000, input: 0e3, output: 007
Time: 4540000, input: 0e4, output: 007
Time: 4560000, input: 0e5, output: 007
Time: 4580000, input: 0e6, output: 007
Time: 4600000, input: 0e7, output: 007
Time: 4620000, input: 0e8, output: 007
Time: 4635000, input: 0e8, output: 006
Time: 4640000, input: 0e9, output: 006
Time: 4660000, input: 0ea, output: 006
Time: 4680000, input: 0eb, output: 006
Time: 4700000, input: 0ec, output: 006
Time: 4720000, input: 0ed, output: 006
Time: 4740000, input: 0ee, output: 006
Time: 4755000, input: 0ee, output: 005
Time: 4760000, input: 0ef, output: 005
Time: 4780000, input: 0f0, output: 005
Time: 4800000, input: 0f1, output: 005
Time: 4820000, input: 0f2, output: 005
Time: 4840000, input: 0f3, output: 005
Time: 4860000, input: 0f4, output: 005
Time: 4880000, input: 0f5, output: 005
Time: 4900000, input: 0f6, output: 005
Time: 4920000, input: 0f7, output: 005
Time: 4940000, input: 0f8, output: 005
Time: 4960000, input: 0f9, output: 005
Time: 4980000, input: 0fa, output: 005
Time: 5000000, input: 0fb, output: 005
Time: 5020000, input: 0fc, output: 005
Time: 5040000, input: 0fd, output: 005
Time: 5060000, input: 0fe, output: 005
Time: 5080000, input: 0ff, output: 005
Time: 5095000, input: 0ff, output: 004
Time: 5100000, input: 100, output: 004
Time: 5115000, input: 100, output: 005
Time: 5120000, input: 101, output: 005
Time: 5140000, input: 102, output: 005
Time: 5160000, input: 103, output: 005
Time: 5180000, input: 104, output: 005
Time: 5200000, input: 105, output: 005
Time: 5215000, input: 105, output: 004
Time: 5220000, input: 106, output: 004
Time: 5240000, input: 107, output: 004
Time: 5260000, input: 108, output: 004
Time: 5280000, input: 109, output: 004
Time: 5300000, input: 10a, output: 004
Time: 5320000, input: 10b, output: 004
Time: 5340000, input: 10c, output: 004
Time: 5360000, input: 10d, output: 004
Time: 5380000, input: 10e, output: 004
Time: 5400000, input: 10f, output: 004
Time: 5420000, input: 110, output: 004
Time: 5440000, input: 111, output: 004
Time: 5460000, input: 112, output: 004
Time: 5480000, input: 113, output: 004
Time: 5500000, input: 114, output: 004
Time: 5520000, input: 115, output: 004
Time: 5540000, input: 116, output: 004
Time: 5560000, input: 117, output: 004
Time: 5575000, input: 117, output: 003
Time: 5580000, input: 118, output: 003
Time: 5600000, input: 119, output: 003
Time: 5620000, input: 11a, output: 003
Time: 5640000, input: 11b, output: 003
Time: 5660000, input: 11c, output: 003
Time: 5680000, input: 11d, output: 003
Time: 5700000, input: 11e, output: 003
Time: 5720000, input: 11f, output: 003
Time: 5740000, input: 120, output: 003
Time: 5760000, input: 121, output: 003
Time: 5780000, input: 122, output: 003
Time: 5800000, input: 123, output: 003
Time: 5820000, input: 124, output: 003
Time: 5840000, input: 125, output: 003
Time: 5860000, input: 126, output: 003
Time: 5880000, input: 127, output: 003
Time: 5900000, input: 128, output: 003
Time: 5920000, input: 129, output: 003
Time: 5940000, input: 12a, output: 003
Time: 5960000, input: 12b, output: 003
Time: 5980000, input: 12c, output: 003
Time: 6000000, input: 12d, output: 003
Time: 6015000, input: 12d, output: 002
Time: 6020000, input: 12e, output: 002
Time: 6040000, input: 12f, output: 002
Time: 6060000, input: 130, output: 002
Time: 6080000, input: 131, output: 002
Time: 6100000, input: 132, output: 002
Time: 6120000, input: 133, output: 002
Time: 6140000, input: 134, output: 002
Time: 6160000, input: 135, output: 002
Time: 6180000, input: 136, output: 002
Time: 6200000, input: 137, output: 002
Time: 6220000, input: 138, output: 002
Time: 6240000, input: 139, output: 002
Time: 6260000, input: 13a, output: 002
Time: 6280000, input: 13b, output: 002
Time: 6300000, input: 13c, output: 002
Time: 6320000, input: 13d, output: 002
Time: 6340000, input: 13e, output: 002
Time: 6360000, input: 13f, output: 002
Time: 6380000, input: 140, output: 002
$finish called at time : 6400 ns : File "Z:/Sync/autosync/Proj_Vivado/MLP/MLP.srcs/sources_1/new/testbench.sv" Line 60
